<svg width="157" height="46" viewBox="0 0 157 46" fill="none" xmlns="http://www.w3.org/2000/svg">
<path fill-rule="evenodd" clip-rule="evenodd" d="M3 3.19481e-05H154C155.657 3.19481e-05 157 1.34312 157 3.00003V43C157 44.6569 155.657 46 154 46H3C1.3432 46 0 44.6569 0 43V3.00003C0 1.34312 1.3432 3.19481e-05 3 3.19481e-05Z" fill="#DF4A32"/>
</svg>
